<?xml version="1.0" encoding="UTF-8" standalone="no"?>
<svg
   xmlns:svg="http://www.w3.org/2000/svg"
   xmlns="http://www.w3.org/2000/svg">
  <g id="layer1">
    <g transform="matrix(0.18208147,0,0,0.1824482,2.0320753,3.457942)" id="g1581">
      <ellipse
         style="fill:#ffffff;stroke:#000000;stroke-width:2px;stroke-miterlimit:4;stroke-dasharray:none;stroke-opacity:0.99298"
         id="path1537"
         cx="24.003242"
         cy="20.85918"
         rx="17.71895"
         ry="16.358004" />
      <path
         style="fill:none;stroke:#000000;stroke-width:2px;stroke-linecap:butt;stroke-linejoin:miter;stroke-miterlimit:4;stroke-dasharray:none;stroke-opacity:1"
         d="m 24.573821,36.963096 0.198853,50.555863"
         id="path1539" />
      <path
         style="fill:none;stroke:#000000;stroke-width:2px;stroke-linecap:butt;stroke-linejoin:miter;stroke-miterlimit:4;stroke-dasharray:none;stroke-opacity:1"
         d="M 24.812054,48.278134 2.5279351,48.036249"
         id="path1541" />
      <path
         id="path1541-3"
         d="M 47.09617,48.520014 24.812054,48.278134"
         style="fill:none;stroke:#000000;stroke-width:2px;stroke-linecap:butt;stroke-linejoin:miter;stroke-miterlimit:4;stroke-dasharray:none;stroke-opacity:1" />
      <path
         style="fill:none;stroke:#000000;stroke-width:2px;stroke-linecap:butt;stroke-linejoin:miter;stroke-miterlimit:4;stroke-dasharray:none;stroke-opacity:1"
         d="M 24.836991,87.600208 47.843388,113.71547"
         id="path1558" />
      <path
         id="path1558-6"
         d="M 24.843334,87.593187 2.7607127,113.04034"
         style="fill:none;stroke:#000000;stroke-width:2px;stroke-linecap:butt;stroke-linejoin:miter;stroke-miterlimit:4;stroke-dasharray:none;stroke-opacity:1" />
    </g>
    <text
      class="icon local sbnl pod"
      id="title"
      y="26.794041"
      x="7"
      text-anchor="middle"
      xml:space="preserve"
      font-size="4px"></text>
  </g>
</svg>
