<?xml version="1.0" encoding="UTF-8" standalone="no"?>
<svg width="64px"
     height="64px"
     viewBox="0 0 64 64"
     data-name="Layer 1"
     id="Layer_1"
     xmlns:svg="http://www.w3.org/2000/svg"
     xmlns="http://www.w3.org/2000/svg">
  <g id="layer1">
    <g transform="matrix(0.18208147,0,0,0.1824482,2.0320753,3.457942)" id="g1581">
      <g transform="scale(1.7 1.7)">
        <defs>
          <style>.cls-1{fill:#838bc5;}.cls-2{fill:#f4ecce;}.cls-3{fill:#ba9bc9;}.cls-4{fill:#8f6c56;}.cls-5{fill:#fcdd7c;}
          </style>
        </defs>
        <path class="cls-1"
              d="M46,2A12,12,0,0,0,34,14a11.83,11.83,0,0,0,1.72,6.16L32,26l6.25-2.84A12,12,0,1,0,46,2Z"/>
        <rect class="cls-2" height="4" width="6" x="24" y="27"/>
        <rect class="cls-3" height="14" width="17" x="6" y="47"/>
        <polygon class="cls-1" points="31 45 31 46 30 31 24 31 22 61 31 61 32 61 59 61 59 45 31 45"/>
        <polyline class="cls-4" points="42 41 43 31 47 31 48 41"/>
        <polyline class="cls-4" points="51 41 52 31 56 31 57 41"/>
        <polyline class="cls-4" points="33 41 34 31 38 31 39 41"/>
        <rect class="cls-3" height="6" rx="3" width="30" x="30" y="41"/>
        <rect class="cls-4" height="2" width="60" x="2" y="60"/>
        <polyline class="cls-4" points="8 47 9 37 13 37 14 47"/>
        <rect class="cls-2" height="6" width="4" x="35" y="51"/>
        <rect class="cls-2" height="6" width="4" x="51" y="51"/>
        <rect class="cls-2" height="6" width="4" x="43" y="51"/>
        <rect class="cls-2" height="2" width="2" x="9" y="50"/>
        <rect class="cls-2" height="2" width="2" x="13" y="50"/>
        <rect class="cls-2" height="2" width="2" x="17" y="50"/>
        <rect class="cls-2" height="2" width="2" x="9" y="54"/>
        <rect class="cls-2" height="2" width="2" x="13" y="54"/>
        <rect class="cls-2" height="2" width="2" x="17" y="54"/>
        <polygon class="cls-5" points="41 14 44 15 43 21 49 14 46 13 51 7 45 7 41 14"/>
      </g>
    </g>
    <text
      class="icon local sbnl pod"
      id="title"
      y="26.794041"
      x="7"
      text-anchor="middle"
      xml:space="preserve"
      font-size="4px"></text>
  </g>
</svg>
