<?xml version="1.0" encoding="UTF-8" standalone="no"?>
<svg
  xmlns:svg="http://www.w3.org/2000/svg"
  xmlns="http://www.w3.org/2000/svg">
  <g id="link1">
    <!--g transform="matrix(0.18208147,0,0,0.1824482,2.0320753,3.457942)" id="g1581"-->
    <g transform="translate(0 6)">
      <path d="M0 0h24v24H0z" fill="none" pointer-events="visible"/>
      <path d="M3.9 12c0-1.71 1.39-3.1 3.1-3.1h4V7H7c-2.76 0-5 2.24-5 5s2.24 5 5 5h4v-1.9H7c-1.71 0-3.1-1.39-3.1-3.1zM8 13h8v-2H8v2zm9-6h-4v1.9h4c1.71 0 3.1 1.39 3.1 3.1s-1.39 3.1-3.1 3.1h-4V17h4c2.76 0 5-2.24 5-5s-2.24-5-5-5z"/>
    </g>
    <text
      class="icon local sbnl pod"
      id="title"
      y="26.794041"
      x="11"
      text-anchor="middle"
      xml:space="preserve"
      font-size="4px"></text>
  </g>
</svg>
